^C:\USERS\YURIY\DESKTOP\CISCO\CISCO_NETWORK_ACADEMY\LAB 1\LAB 1\STDAFX.CPP
C:\WINDOWS\GLOBALIZATION\SORTING\SORTDEFAULT.NLS
D:\VISSTUDIO\VC\TOOLS\MSVC\14.12.25827\BIN\HOSTX86\X86\1049\CLUI.DLL
D:\VISSTUDIO\VC\TOOLS\MSVC\14.12.25827\BIN\HOSTX86\X86\MSPDBSRV.EXE
C:\WINDOWS\SYSTEM32\TZRES.DLL
C:\USERS\YURIY\DESKTOP\CISCO\CISCO_NETWORK_ACADEMY\LAB 1\LAB 1\STDAFX.H
C:\USERS\YURIY\DESKTOP\CISCO\CISCO_NETWORK_ACADEMY\LAB 1\LAB 1\TARGETVER.H
C:\PROGRAM FILES (X86)\WINDOWS KITS\10\INCLUDE\10.0.16299.0\SHARED\SDKDDKVER.H
C:\PROGRAM FILES (X86)\WINDOWS KITS\10\INCLUDE\10.0.16299.0\UCRT\STDIO.H
C:\PROGRAM FILES (X86)\WINDOWS KITS\10\INCLUDE\10.0.16299.0\UCRT\CORECRT.H
D:\VISSTUDIO\VC\TOOLS\MSVC\14.12.25827\INCLUDE\VCRUNTIME.H
D:\VISSTUDIO\VC\TOOLS\MSVC\14.12.25827\INCLUDE\SAL.H
D:\VISSTUDIO\VC\TOOLS\MSVC\14.12.25827\INCLUDE\CONCURRENCYSAL.H
D:\VISSTUDIO\VC\TOOLS\MSVC\14.12.25827\INCLUDE\VADEFS.H
C:\PROGRAM FILES (X86)\WINDOWS KITS\10\INCLUDE\10.0.16299.0\UCRT\CORECRT_WSTDIO.H
C:\PROGRAM FILES (X86)\WINDOWS KITS\10\INCLUDE\10.0.16299.0\UCRT\CORECRT_STDIO_CONFIG.H
C:\PROGRAM FILES (X86)\WINDOWS KITS\10\INCLUDE\10.0.16299.0\UCRT\TCHAR.H
C:\PROGRAM FILES (X86)\WINDOWS KITS\10\INCLUDE\10.0.16299.0\UCRT\WCHAR.H
C:\PROGRAM FILES (X86)\WINDOWS KITS\10\INCLUDE\10.0.16299.0\UCRT\CORECRT_MEMCPY_S.H
C:\PROGRAM FILES (X86)\WINDOWS KITS\10\INCLUDE\10.0.16299.0\UCRT\ERRNO.H
D:\VISSTUDIO\VC\TOOLS\MSVC\14.12.25827\INCLUDE\VCRUNTIME_STRING.H
C:\PROGRAM FILES (X86)\WINDOWS KITS\10\INCLUDE\10.0.16299.0\UCRT\CORECRT_WCONIO.H
C:\PROGRAM FILES (X86)\WINDOWS KITS\10\INCLUDE\10.0.16299.0\UCRT\CORECRT_WCTYPE.H
C:\PROGRAM FILES (X86)\WINDOWS KITS\10\INCLUDE\10.0.16299.0\UCRT\CORECRT_WDIRECT.H
C:\PROGRAM FILES (X86)\WINDOWS KITS\10\INCLUDE\10.0.16299.0\UCRT\CORECRT_WIO.H
C:\PROGRAM FILES (X86)\WINDOWS KITS\10\INCLUDE\10.0.16299.0\UCRT\CORECRT_SHARE.H
C:\PROGRAM FILES (X86)\WINDOWS KITS\10\INCLUDE\10.0.16299.0\UCRT\CORECRT_WPROCESS.H
C:\PROGRAM FILES (X86)\WINDOWS KITS\10\INCLUDE\10.0.16299.0\UCRT\CORECRT_WSTDLIB.H
C:\PROGRAM FILES (X86)\WINDOWS KITS\10\INCLUDE\10.0.16299.0\UCRT\CORECRT_WSTRING.H
C:\PROGRAM FILES (X86)\WINDOWS KITS\10\INCLUDE\10.0.16299.0\UCRT\CORECRT_WTIME.H
C:\PROGRAM FILES (X86)\WINDOWS KITS\10\INCLUDE\10.0.16299.0\UCRT\SYS\STAT.H
C:\PROGRAM FILES (X86)\WINDOWS KITS\10\INCLUDE\10.0.16299.0\UCRT\SYS\TYPES.H
^C:\USERS\YURIY\DESKTOP\CISCO\CISCO_NETWORK_ACADEMY\LAB 1\LAB 1\LAB 1.CPP
C:\WINDOWS\GLOBALIZATION\SORTING\SORTDEFAULT.NLS
D:\VISSTUDIO\VC\TOOLS\MSVC\14.12.25827\BIN\HOSTX86\X86\1049\CLUI.DLL
C:\WINDOWS\SYSTEM32\TZRES.DLL
C:\USERS\YURIY\DESKTOP\CISCO\CISCO_NETWORK_ACADEMY\LAB 1\LAB 1\DEBUG\LAB 1.PCH
D:\VISSTUDIO\VC\TOOLS\MSVC\14.12.25827\INCLUDE\IOSTREAM
D:\VISSTUDIO\VC\TOOLS\MSVC\14.12.25827\INCLUDE\ISTREAM
D:\VISSTUDIO\VC\TOOLS\MSVC\14.12.25827\INCLUDE\OSTREAM
D:\VISSTUDIO\VC\TOOLS\MSVC\14.12.25827\INCLUDE\IOS
D:\VISSTUDIO\VC\TOOLS\MSVC\14.12.25827\INCLUDE\XLOCNUM
D:\VISSTUDIO\VC\TOOLS\MSVC\14.12.25827\INCLUDE\CLIMITS
D:\VISSTUDIO\VC\TOOLS\MSVC\14.12.25827\INCLUDE\YVALS.H
D:\VISSTUDIO\VC\TOOLS\MSVC\14.12.25827\INCLUDE\XKEYCHECK.H
D:\VISSTUDIO\VC\TOOLS\MSVC\14.12.25827\INCLUDE\CRTDEFS.H
D:\VISSTUDIO\VC\TOOLS\MSVC\14.12.25827\INCLUDE\VCRUNTIME.H
D:\VISSTUDIO\VC\TOOLS\MSVC\14.12.25827\INCLUDE\USE_ANSI.H
D:\VISSTUDIO\VC\TOOLS\MSVC\14.12.25827\INCLUDE\LIMITS.H
D:\VISSTUDIO\VC\TOOLS\MSVC\14.12.25827\INCLUDE\CMATH
D:\VISSTUDIO\VC\TOOLS\MSVC\14.12.25827\INCLUDE\CSTDLIB
C:\PROGRAM FILES (X86)\WINDOWS KITS\10\INCLUDE\10.0.16299.0\UCRT\STDLIB.H
C:\PROGRAM FILES (X86)\WINDOWS KITS\10\INCLUDE\10.0.16299.0\UCRT\CORECRT_MALLOC.H
C:\PROGRAM FILES (X86)\WINDOWS KITS\10\INCLUDE\10.0.16299.0\UCRT\CORECRT_SEARCH.H
C:\PROGRAM FILES (X86)\WINDOWS KITS\10\INCLUDE\10.0.16299.0\UCRT\STDDEF.H
C:\PROGRAM FILES (X86)\WINDOWS KITS\10\INCLUDE\10.0.16299.0\UCRT\MATH.H
C:\PROGRAM FILES (X86)\WINDOWS KITS\10\INCLUDE\10.0.16299.0\UCRT\CORECRT_MATH.H
D:\VISSTUDIO\VC\TOOLS\MSVC\14.12.25827\INCLUDE\XTGMATH.H
D:\VISSTUDIO\VC\TOOLS\MSVC\14.12.25827\INCLUDE\XTR1COMMON
D:\VISSTUDIO\VC\TOOLS\MSVC\14.12.25827\INCLUDE\CSTDIO
D:\VISSTUDIO\VC\TOOLS\MSVC\14.12.25827\INCLUDE\STREAMBUF
D:\VISSTUDIO\VC\TOOLS\MSVC\14.12.25827\INCLUDE\XIOSBASE
D:\VISSTUDIO\VC\TOOLS\MSVC\14.12.25827\INCLUDE\XLOCALE
D:\VISSTUDIO\VC\TOOLS\MSVC\14.12.25827\INCLUDE\CSTRING
C:\PROGRAM FILES (X86)\WINDOWS KITS\10\INCLUDE\10.0.16299.0\UCRT\STRING.H
C:\PROGRAM FILES (X86)\WINDOWS KITS\10\INCLUDE\10.0.16299.0\UCRT\CORECRT_MEMORY.H
D:\VISSTUDIO\VC\TOOLS\MSVC\14.12.25827\INCLUDE\STDEXCEPT
D:\VISSTUDIO\VC\TOOLS\MSVC\14.12.25827\INCLUDE\EXCEPTION
D:\VISSTUDIO\VC\TOOLS\MSVC\14.12.25827\INCLUDE\TYPE_TRAITS
D:\VISSTUDIO\VC\TOOLS\MSVC\14.12.25827\INCLUDE\XSTDDEF
D:\VISSTUDIO\VC\TOOLS\MSVC\14.12.25827\INCLUDE\CSTDDEF
D:\VISSTUDIO\VC\TOOLS\MSVC\14.12.25827\INCLUDE\INITIALIZER_LIST
C:\PROGRAM FILES (X86)\WINDOWS KITS\10\INCLUDE\10.0.16299.0\UCRT\MALLOC.H
D:\VISSTUDIO\VC\TOOLS\MSVC\14.12.25827\INCLUDE\VCRUNTIME_EXCEPTION.H
D:\VISSTUDIO\VC\TOOLS\MSVC\14.12.25827\INCLUDE\EH.H
C:\PROGRAM FILES (X86)\WINDOWS KITS\10\INCLUDE\10.0.16299.0\UCRT\CORECRT_TERMINATE.H
D:\VISSTUDIO\VC\TOOLS\MSVC\14.12.25827\INCLUDE\XSTRING
D:\VISSTUDIO\VC\TOOLS\MSVC\14.12.25827\INCLUDE\XMEMORY0
D:\VISSTUDIO\VC\TOOLS\MSVC\14.12.25827\INCLUDE\CSTDINT
D:\VISSTUDIO\VC\TOOLS\MSVC\14.12.25827\INCLUDE\STDINT.H
D:\VISSTUDIO\VC\TOOLS\MSVC\14.12.25827\INCLUDE\LIMITS
D:\VISSTUDIO\VC\TOOLS\MSVC\14.12.25827\INCLUDE\YMATH.H
D:\VISSTUDIO\VC\TOOLS\MSVC\14.12.25827\INCLUDE\CFLOAT
C:\PROGRAM FILES (X86)\WINDOWS KITS\10\INCLUDE\10.0.16299.0\UCRT\FLOAT.H
D:\VISSTUDIO\VC\TOOLS\MSVC\14.12.25827\INCLUDE\CWCHAR
D:\VISSTUDIO\VC\TOOLS\MSVC\14.12.25827\INCLUDE\NEW
D:\VISSTUDIO\VC\TOOLS\MSVC\14.12.25827\INCLUDE\VCRUNTIME_NEW.H
D:\VISSTUDIO\VC\TOOLS\MSVC\14.12.25827\INCLUDE\XUTILITY
D:\VISSTUDIO\VC\TOOLS\MSVC\14.12.25827\INCLUDE\UTILITY
D:\VISSTUDIO\VC\TOOLS\MSVC\14.12.25827\INCLUDE\IOSFWD
C:\PROGRAM FILES (X86)\WINDOWS KITS\10\INCLUDE\10.0.16299.0\UCRT\CRTDBG.H
D:\VISSTUDIO\VC\TOOLS\MSVC\14.12.25827\INCLUDE\VCRUNTIME_NEW_DEBUG.H
D:\VISSTUDIO\VC\TOOLS\MSVC\14.12.25827\INCLUDE\XATOMIC0.H
D:\VISSTUDIO\VC\TOOLS\MSVC\14.12.25827\INCLUDE\INTRIN0.H
D:\VISSTUDIO\VC\TOOLS\MSVC\14.12.25827\INCLUDE\TYPEINFO
D:\VISSTUDIO\VC\TOOLS\MSVC\14.12.25827\INCLUDE\VCRUNTIME_TYPEINFO.H
D:\VISSTUDIO\VC\TOOLS\MSVC\14.12.25827\INCLUDE\XLOCINFO
D:\VISSTUDIO\VC\TOOLS\MSVC\14.12.25827\INCLUDE\XLOCINFO.H
C:\PROGRAM FILES (X86)\WINDOWS KITS\10\INCLUDE\10.0.16299.0\UCRT\CTYPE.H
C:\PROGRAM FILES (X86)\WINDOWS KITS\10\INCLUDE\10.0.16299.0\UCRT\LOCALE.H
D:\VISSTUDIO\VC\TOOLS\MSVC\14.12.25827\INCLUDE\XFACET
D:\VISSTUDIO\VC\TOOLS\MSVC\14.12.25827\INCLUDE\SYSTEM_ERROR
D:\VISSTUDIO\VC\TOOLS\MSVC\14.12.25827\INCLUDE\CERRNO
D:\VISSTUDIO\VC\TOOLS\MSVC\14.12.25827\INCLUDE\XCALL_ONCE.H
C:\PROGRAM FILES (X86)\WINDOWS KITS\10\INCLUDE\10.0.16299.0\UCRT\SHARE.H
C:\PROGRAM FILES (X86)\WINDOWS KITS\10\INCLUDE\10.0.16299.0\UCRT\CONIO.H
D:\VISSTUDIO\VC\TOOLS\MSVC\14.12.25827\BIN\HOSTX86\X86\MSPDBSRV.EXE
