^C:\USERS\YURIY\DESKTOP\CISCO\CISCO_NETWORK_ACADEMY\LAB 1\LAB 1\STDAFX.CPP
C:\USERS\YURIY\DESKTOP\CISCO\CISCO_NETWORK_ACADEMY\LAB 1\LAB 1\DEBUG\LAB 1.PCH
C:\USERS\YURIY\DESKTOP\CISCO\CISCO_NETWORK_ACADEMY\LAB 1\LAB 1\DEBUG\VC141.PDB
C:\USERS\YURIY\DESKTOP\CISCO\CISCO_NETWORK_ACADEMY\LAB 1\LAB 1\DEBUG\VC141.IDB
C:\USERS\YURIY\DESKTOP\CISCO\CISCO_NETWORK_ACADEMY\LAB 1\LAB 1\DEBUG\STDAFX.OBJ
^C:\USERS\YURIY\DESKTOP\CISCO\CISCO_NETWORK_ACADEMY\LAB 1\LAB 1\LAB 1.CPP
C:\USERS\YURIY\DESKTOP\CISCO\CISCO_NETWORK_ACADEMY\LAB 1\LAB 1\DEBUG\VC141.PDB
C:\USERS\YURIY\DESKTOP\CISCO\CISCO_NETWORK_ACADEMY\LAB 1\LAB 1\DEBUG\VC141.IDB
C:\USERS\YURIY\DESKTOP\CISCO\CISCO_NETWORK_ACADEMY\LAB 1\LAB 1\DEBUG\LAB 1.OBJ
