^C:\USERS\YURIY\DESKTOP\CISCO\CISCO_NETWORK_ACADEMY\LABA3(2)\LABA3(2)\DEBUG\LABA3(2).OBJ|C:\USERS\YURIY\DESKTOP\CISCO\CISCO_NETWORK_ACADEMY\LABA3(2)\LABA3(2)\DEBUG\STDAFX.OBJ
C:\USERS\YURIY\DESKTOP\CISCO\CISCO_NETWORK_ACADEMY\LABA3(2)\DEBUG\LABA3(2).EXE
C:\USERS\YURIY\DESKTOP\CISCO\CISCO_NETWORK_ACADEMY\LABA3(2)\DEBUG\LABA3(2).ILK
C:\USERS\YURIY\DESKTOP\CISCO\CISCO_NETWORK_ACADEMY\LABA3(2)\DEBUG\LABA3(2).PDB
