^C:\USERS\YURIY\DESKTOP\CISCO\CISCO_NETWORK_ACADEMY\LABA5(2)\LABA5(2)\DEBUG\LABA5(2).OBJ|C:\USERS\YURIY\DESKTOP\CISCO\CISCO_NETWORK_ACADEMY\LABA5(2)\LABA5(2)\DEBUG\STDAFX.OBJ
C:\WINDOWS\GLOBALIZATION\SORTING\SORTDEFAULT.NLS
C:\PROGRAM FILES (X86)\WINDOWS KITS\10\LIB\10.0.16299.0\UM\X86\KERNEL32.LIB
C:\PROGRAM FILES (X86)\WINDOWS KITS\10\LIB\10.0.16299.0\UM\X86\USER32.LIB
C:\PROGRAM FILES (X86)\WINDOWS KITS\10\LIB\10.0.16299.0\UM\X86\GDI32.LIB
C:\PROGRAM FILES (X86)\WINDOWS KITS\10\LIB\10.0.16299.0\UM\X86\WINSPOOL.LIB
C:\PROGRAM FILES (X86)\WINDOWS KITS\10\LIB\10.0.16299.0\UM\X86\COMDLG32.LIB
C:\PROGRAM FILES (X86)\WINDOWS KITS\10\LIB\10.0.16299.0\UM\X86\ADVAPI32.LIB
C:\PROGRAM FILES (X86)\WINDOWS KITS\10\LIB\10.0.16299.0\UM\X86\SHELL32.LIB
C:\PROGRAM FILES (X86)\WINDOWS KITS\10\LIB\10.0.16299.0\UM\X86\OLE32.LIB
C:\PROGRAM FILES (X86)\WINDOWS KITS\10\LIB\10.0.16299.0\UM\X86\OLEAUT32.LIB
C:\PROGRAM FILES (X86)\WINDOWS KITS\10\LIB\10.0.16299.0\UM\X86\UUID.LIB
C:\PROGRAM FILES (X86)\WINDOWS KITS\10\LIB\10.0.16299.0\UM\X86\ODBC32.LIB
C:\PROGRAM FILES (X86)\WINDOWS KITS\10\LIB\10.0.16299.0\UM\X86\ODBCCP32.LIB
C:\USERS\YURIY\DESKTOP\CISCO\CISCO_NETWORK_ACADEMY\LABA5(2)\LABA5(2)\DEBUG\LABA5(2).OBJ
C:\USERS\YURIY\DESKTOP\CISCO\CISCO_NETWORK_ACADEMY\LABA5(2)\LABA5(2)\DEBUG\STDAFX.OBJ
C:\WINDOWS\SYSTEM32\TZRES.DLL
D:\VISSTUDIO\VC\TOOLS\MSVC\14.12.25827\LIB\X86\MSVCPRTD.LIB
D:\VISSTUDIO\VC\TOOLS\MSVC\14.12.25827\LIB\X86\MSVCRTD.LIB
D:\VISSTUDIO\VC\TOOLS\MSVC\14.12.25827\LIB\X86\OLDNAMES.LIB
D:\VISSTUDIO\VC\TOOLS\MSVC\14.12.25827\LIB\X86\VCRUNTIMED.LIB
C:\PROGRAM FILES (X86)\WINDOWS KITS\10\LIB\10.0.16299.0\UCRT\X86\UCRTD.LIB
